1690897533.574294 : FEM 5
8.301586e-01, 8.477236e-01, 
6.447885e-02, 7.532554e-02, 
-4.556890e+01 -2.581765e+01 -4.304841e+01 -2.588683e+01 
-1.834722e+01 -1.415962e+01 -1.582673e+01 -1.218872e+01 
8.874460e+00 8.169107e+00 1.139495e+01 1.047804e+01 
3.609614e+01 3.192559e+01 3.861663e+01 3.443465e+01 
6.331782e+01 5.771283e+01 6.583831e+01 6.097004e+01 
9.053950e+01 7.997074e+01 9.305999e+01 8.350280e+01 
1.177612e+02 1.014164e+02 1.202817e+02 1.055047e+02 
1.449829e+02 1.230746e+02 1.475033e+02 1.276568e+02 
1.722045e+02 1.452991e+02 1.747250e+02 1.504472e+02 
1.994262e+02 1.668455e+02 2.019467e+02 1.723135e+02 
2.266479e+02 1.914943e+02 2.291684e+02 1.974346e+02 
2.538696e+02 2.139524e+02 2.563901e+02 2.203177e+02 
2.810913e+02 2.350564e+02 2.836117e+02 2.418316e+02 
3.083129e+02 2.582115e+02 3.108334e+02 2.657668e+02 
3.355346e+02 2.797771e+02 3.380551e+02 2.875132e+02 
3.627563e+02 3.031856e+02 3.652768e+02 3.116602e+02 
3.899780e+02 3.255088e+02 3.924985e+02 3.342777e+02 
4.171997e+02 3.515735e+02 4.197201e+02 3.608593e+02 
4.444213e+02 3.724008e+02 4.469418e+02 3.822253e+02 
4.716430e+02 3.905118e+02 4.741635e+02 4.009320e+02 
4.988647e+02 4.163910e+02 5.013852e+02 4.268631e+02 
5.260864e+02 4.384589e+02 5.286069e+02 4.496059e+02 
5.533081e+02 4.602073e+02 5.558285e+02 4.718857e+02 
5.805297e+02 4.837744e+02 5.830502e+02 4.959967e+02 
6.077514e+02 5.092424e+02 6.102719e+02 5.219410e+02 
6.349731e+02 5.293140e+02 6.374936e+02 5.424151e+02 
6.621948e+02 5.530773e+02 6.647153e+02 5.667707e+02 
6.894165e+02 5.758879e+02 6.919369e+02 5.900511e+02 
7.166381e+02 5.942375e+02 7.191586e+02 6.086976e+02 
7.438598e+02 6.173983e+02 7.463803e+02 6.328161e+02 
7.710815e+02 6.420209e+02 7.736020e+02 6.574220e+02 
7.983032e+02 6.670576e+02 8.008237e+02 6.829849e+02 
8.255249e+02 6.904551e+02 8.280453e+02 7.070189e+02 
8.527465e+02 7.095878e+02 8.552670e+02 7.266126e+02 
8.799682e+02 7.316541e+02 8.824887e+02 7.489733e+02 
9.071899e+02 7.537095e+02 9.097104e+02 7.713585e+02 
9.344116e+02 7.760665e+02 9.369321e+02 7.945012e+02 
9.616332e+02 8.001100e+02 9.641537e+02 8.189958e+02 
9.888549e+02 8.226015e+02 9.913754e+02 8.419044e+02 
1.016077e+03 8.512605e+02 1.018597e+03 8.712224e+02 
1.043298e+03 8.735048e+02 1.045819e+03 8.940197e+02 
1.070520e+03 8.930965e+02 1.073040e+03 9.139926e+02 
1.097742e+03 9.168745e+02 1.100262e+03 9.381214e+02 
1.124963e+03 9.370256e+02 1.127484e+03 9.588441e+02 
1.152185e+03 9.558930e+02 1.154705e+03 9.780282e+02 
1.179407e+03 9.822195e+02 1.181927e+03 1.004673e+03 
1.206628e+03 1.004973e+03 1.209149e+03 1.028172e+03 
1.233850e+03 1.026836e+03 1.236371e+03 1.050283e+03 
1.261072e+03 1.049348e+03 1.263592e+03 1.073389e+03 
1.288293e+03 1.071035e+03 1.290814e+03 1.095396e+03 
1.315515e+03 1.094157e+03 1.318036e+03 1.099255e+03 
1.342737e+03 1.099418e+03 1.345257e+03 1.099240e+03 
1.369958e+03 1.099267e+03 1.372479e+03 1.099010e+03 
1.397180e+03 1.099323e+03 1.399701e+03 1.099024e+03 
1.424402e+03 1.099294e+03 1.426922e+03 1.098923e+03 
