1690901756.565074 : FEM 13
6.559609e-02, 6.695712e-02, 
4.152050e-02, 2.682359e-02, 
-1.452355e+02 -9.230107e+00 -1.454222e+02 -9.243060e+00 
1.269813e+02 8.585943e+00 1.267946e+02 8.936397e+00 
3.991981e+02 2.618848e+01 3.990114e+02 2.698008e+01 
6.714149e+02 4.416870e+01 6.712282e+02 4.526106e+01 
9.436317e+02 6.217124e+01 9.434450e+02 6.361927e+01 
1.215849e+03 7.992772e+01 1.215662e+03 8.175522e+01 
1.488065e+03 9.729743e+01 1.487879e+03 9.961164e+01 
1.760282e+03 1.156991e+02 1.760095e+03 1.184133e+02 
2.032499e+03 1.334501e+02 2.032312e+03 1.365170e+02 
2.304716e+03 1.510245e+02 2.304529e+03 1.545438e+02 
2.576932e+03 1.689442e+02 2.576746e+03 1.727732e+02 
2.849149e+03 1.869374e+02 2.848963e+03 1.910919e+02 
3.121366e+03 2.049151e+02 3.121179e+03 2.094809e+02 
3.393583e+03 2.226291e+02 3.393396e+03 2.274802e+02 
3.665800e+03 2.402555e+02 3.665613e+03 2.455273e+02 
3.938016e+03 2.580100e+02 3.937830e+03 2.636457e+02 
4.210233e+03 2.758024e+02 4.210047e+03 2.818153e+02 
4.482450e+03 2.937488e+02 4.482263e+03 3.001438e+02 
4.754667e+03 3.114016e+02 4.754480e+03 3.181917e+02 
5.026884e+03 3.292374e+02 5.026697e+03 3.364289e+02 
5.299100e+03 3.473196e+02 5.298914e+03 3.548551e+02 
5.571317e+03 3.652293e+02 5.571131e+03 3.730592e+02 
5.843534e+03 3.827481e+02 5.843347e+03 3.909964e+02 
6.115751e+03 4.006831e+02 6.115564e+03 4.092446e+02 
6.387968e+03 4.186240e+02 6.387781e+03 4.275295e+02 
6.660184e+03 4.363136e+02 6.659998e+03 4.456739e+02 
6.932401e+03 4.545188e+02 6.932215e+03 4.641171e+02 
7.204618e+03 4.724950e+02 7.204431e+03 4.825357e+02 
7.476835e+03 4.902637e+02 7.476648e+03 5.007514e+02 
7.749052e+03 5.080195e+02 7.748865e+03 5.187685e+02 
8.021268e+03 5.260385e+02 8.021082e+03 5.371523e+02 
8.293485e+03 5.440534e+02 8.293298e+03 5.555041e+02 
8.565702e+03 5.617948e+02 8.565515e+03 5.737293e+02 
8.837919e+03 5.794682e+02 8.837732e+03 5.917708e+02 
9.110136e+03 5.974710e+02 9.109949e+03 6.100539e+02 
9.382352e+03 6.151537e+02 9.382166e+03 6.280976e+02 
9.654569e+03 6.330579e+02 9.654382e+03 6.463853e+02 
9.926786e+03 6.510675e+02 9.926599e+03 6.648003e+02 
1.019900e+04 6.689060e+02 1.019882e+04 6.829845e+02 
1.047122e+04 6.869884e+02 1.047103e+04 7.013336e+02 
1.074344e+04 7.047397e+02 1.074325e+04 7.195294e+02 
1.101565e+04 7.225679e+02 1.101547e+04 7.378213e+02 
1.128787e+04 7.401575e+02 1.128768e+04 7.557587e+02 
1.156009e+04 7.582499e+02 1.155990e+04 7.742311e+02 
1.183230e+04 7.763158e+02 1.183212e+04 7.926817e+02 
1.210452e+04 7.939913e+02 1.210433e+04 8.106755e+02 
1.237674e+04 8.120715e+02 1.237655e+04 8.292539e+02 
1.264895e+04 8.295879e+02 1.264877e+04 8.471567e+02 
1.292117e+04 8.474497e+02 1.292098e+04 8.652685e+02 
1.319339e+04 8.654948e+02 1.319320e+04 8.837336e+02 
1.346560e+04 8.833926e+02 1.346542e+04 9.020836e+02 
1.373782e+04 9.012428e+02 1.373763e+04 9.203350e+02 
1.401004e+04 9.187993e+02 1.400985e+04 9.381712e+02 
1.428225e+04 9.363907e+02 1.428207e+04 9.561989e+02 
1.455447e+04 9.542105e+02 1.455428e+04 9.745235e+02 
1.482669e+04 9.721197e+02 1.482650e+04 9.927475e+02 
1.509891e+04 9.902320e+02 1.509872e+04 1.011176e+03 
1.537112e+04 1.007725e+03 1.537094e+04 1.029109e+03 
1.564334e+04 1.025645e+03 1.564315e+04 1.047366e+03 
1.591556e+04 1.043489e+03 1.591537e+04 1.065500e+03 
1.618777e+04 1.060927e+03 1.618759e+04 1.083410e+03 
1.645999e+04 1.078771e+03 1.645980e+04 1.098339e+03 
1.673221e+04 1.096460e+03 1.673202e+04 1.098172e+03 
1.700442e+04 1.098007e+03 1.700424e+04 1.098104e+03 
1.727664e+04 1.097977e+03 1.727645e+04 1.098094e+03 
