* Simulate DC voltages at ADC inputs

V1  VCC 0   DC 1.160V
*R1 VCC 1 1.4k
*R2 1 2 1k
*R3 2 3 1k
*R4 3 0 1.4k
R1 VCC 1 1.6k
*R2 1 2 20Meg
*R3 2 3 20Meg
R4 3 0 49.9k
RP_ADC 1 0 6.9k
RD_ADC 1 3 8.7k
RN_ADC 3 0 6.9k

*.op
.temp 18
.tran 1u 10u
*.ac oct 100 1000 2.5e9
*.noise v(vout_g10) I_apd oct 10 1e3 1e9 1
.end
