1690897017.814800 : FEM 2
6.546260e-02, 6.677606e-02, 
4.977822e-02, 4.664709e-02, 
1.195941e+00 7.537743e-02 7.743411e+00 4.878576e-01 
2.734127e+02 1.797600e+01 2.799602e+02 1.881495e+01 
5.456295e+02 3.605925e+01 5.521770e+02 3.720114e+01 
8.178463e+02 5.406181e+01 8.243938e+02 5.563102e+01 
1.090063e+03 7.181188e+01 1.096611e+03 7.366651e+01 
1.362280e+03 8.946359e+01 1.368827e+03 9.168545e+01 
1.634497e+03 1.070479e+02 1.641044e+03 1.096233e+02 
1.906714e+03 1.248881e+02 1.913261e+03 1.277735e+02 
2.178930e+03 1.424815e+02 2.185478e+03 1.456943e+02 
2.451147e+03 1.604144e+02 2.457695e+03 1.639145e+02 
2.723364e+03 1.781990e+02 2.729911e+03 1.821805e+02 
2.995581e+03 1.961683e+02 3.002128e+03 2.004525e+02 
3.267798e+03 2.136819e+02 3.274345e+03 2.183121e+02 
3.540014e+03 2.315226e+02 3.546562e+03 2.364946e+02 
3.812231e+03 2.492361e+02 3.818779e+03 2.545620e+02 
4.084448e+03 2.667604e+02 4.090995e+03 2.724283e+02 
4.356665e+03 2.845970e+02 4.363212e+03 2.905964e+02 
4.628881e+03 3.025140e+02 4.635429e+03 3.088420e+02 
4.901098e+03 3.205878e+02 4.907646e+03 3.272535e+02 
5.173315e+03 3.384598e+02 5.179863e+03 3.454917e+02 
5.445532e+03 3.562488e+02 5.452079e+03 3.637069e+02 
5.717749e+03 3.738332e+02 5.724296e+03 3.815959e+02 
5.989965e+03 3.916777e+02 5.996513e+03 3.997870e+02 
6.262182e+03 4.097099e+02 6.268730e+03 4.182725e+02 
6.534399e+03 4.276364e+02 6.540947e+03 4.365528e+02 
6.806616e+03 4.455082e+02 6.813163e+03 4.547922e+02 
7.078833e+03 4.636378e+02 7.085380e+03 4.732310e+02 
7.351049e+03 4.812117e+02 7.357597e+03 4.911828e+02 
7.623266e+03 4.992526e+02 7.629814e+03 5.096294e+02 
7.895483e+03 5.168952e+02 7.902031e+03 5.276211e+02 
8.167700e+03 5.345608e+02 8.174247e+03 5.455780e+02 
8.439917e+03 5.525223e+02 8.446464e+03 5.639055e+02 
8.712133e+03 5.704508e+02 8.718681e+03 5.822213e+02 
8.984350e+03 5.880939e+02 8.990898e+03 6.002010e+02 
9.256567e+03 6.057105e+02 9.263115e+03 6.181693e+02 
9.528784e+03 6.236111e+02 9.535331e+03 6.364296e+02 
9.801001e+03 6.415660e+02 9.807548e+03 6.548279e+02 
1.007322e+04 6.596029e+02 1.007976e+04 6.732097e+02 
1.034543e+04 6.772166e+02 1.035198e+04 6.911692e+02 
1.061765e+04 6.951905e+02 1.062420e+04 7.094890e+02 
1.088987e+04 7.128326e+02 1.089642e+04 7.274907e+02 
1.116208e+04 7.308595e+02 1.116863e+04 7.458492e+02 
1.143430e+04 7.485917e+02 1.144085e+04 7.639054e+02 
1.170652e+04 7.665010e+02 1.171307e+04 7.822276e+02 
1.197874e+04 7.841012e+02 1.198528e+04 8.001690e+02 
1.225095e+04 8.021584e+02 1.225750e+04 8.186434e+02 
1.252317e+04 8.198951e+02 1.252972e+04 8.366941e+02 
1.279539e+04 8.375620e+02 1.280193e+04 8.547691e+02 
1.306760e+04 8.552803e+02 1.307415e+04 8.728470e+02 
1.333982e+04 8.730660e+02 1.334637e+04 8.910664e+02 
1.361204e+04 8.910117e+02 1.361858e+04 9.093150e+02 
1.388425e+04 9.088979e+02 1.389080e+04 9.275613e+02 
1.415647e+04 9.266473e+02 1.416302e+04 9.456008e+02 
1.442869e+04 9.442068e+02 1.443523e+04 9.635634e+02 
1.470090e+04 9.621530e+02 1.470745e+04 9.818979e+02 
1.497312e+04 9.798310e+02 1.497967e+04 9.999485e+02 
1.524534e+04 9.977497e+02 1.525188e+04 1.018254e+03 
1.551755e+04 1.015270e+03 1.552410e+04 1.036139e+03 
1.578977e+04 1.033068e+03 1.579632e+04 1.054407e+03 
1.606199e+04 1.050757e+03 1.606853e+04 1.072449e+03 
1.633420e+04 1.068315e+03 1.634075e+04 1.090375e+03 
1.660642e+04 1.085890e+03 1.661297e+04 1.098154e+03 
1.687864e+04 1.098468e+03 1.688518e+04 1.098214e+03 
1.715085e+04 1.098184e+03 1.715740e+04 1.098146e+03 
1.742307e+04 1.098136e+03 1.742962e+04 1.098117e+03 
