G04 #@! TF.GenerationSoftware,KiCad,Pcbnew,6.0.11-3.fc36*
G04 #@! TF.CreationDate,2023-03-24T10:57:58+01:00*
G04 #@! TF.ProjectId,SAFE,53414645-2e6b-4696-9361-645f70636258,rev?*
G04 #@! TF.SameCoordinates,Original*
G04 #@! TF.FileFunction,Other,User*
%FSLAX46Y46*%
G04 Gerber Fmt 4.6, Leading zero omitted, Abs format (unit mm)*
G04 Created by KiCad (PCBNEW 6.0.11-3.fc36) date 2023-03-24 10:57:58*
%MOMM*%
%LPD*%
G01*
G04 APERTURE LIST*
%ADD10C,0.150000*%
%ADD11C,0.050000*%
G04 APERTURE END LIST*
D10*
X41200000Y-53700000D02*
X48800000Y-53700000D01*
X48800000Y-53700000D02*
X48800000Y-90400000D01*
X48800000Y-90400000D02*
X41200000Y-90400000D01*
X41200000Y-90400000D02*
X41200000Y-53700000D01*
X41200000Y-140400000D02*
X41200000Y-103700000D01*
X48800000Y-140400000D02*
X41200000Y-140400000D01*
X41200000Y-103700000D02*
X48800000Y-103700000D01*
X48800000Y-103700000D02*
X48800000Y-140400000D01*
D11*
X46195000Y-45280000D02*
X46195000Y-46220000D01*
X46195000Y-46220000D02*
X48055000Y-46220000D01*
X48055000Y-46220000D02*
X48055000Y-45280000D01*
X48055000Y-45280000D02*
X46195000Y-45280000D01*
X48080000Y-46255000D02*
X46220000Y-46255000D01*
X48080000Y-47195000D02*
X48080000Y-46255000D01*
X46220000Y-46255000D02*
X46220000Y-47195000D01*
X46220000Y-47195000D02*
X48080000Y-47195000D01*
D10*
X137400000Y-103600000D02*
X145000000Y-103600000D01*
X145000000Y-140300000D02*
X137400000Y-140300000D01*
X145000000Y-103600000D02*
X145000000Y-140300000D01*
X137400000Y-140300000D02*
X137400000Y-103600000D01*
D11*
X121420000Y-50770000D02*
X120480000Y-50770000D01*
X121420000Y-52630000D02*
X121420000Y-50770000D01*
X120480000Y-52630000D02*
X121420000Y-52630000D01*
X120480000Y-50770000D02*
X120480000Y-52630000D01*
X55895000Y-118695000D02*
X55895000Y-121655000D01*
X57355000Y-121655000D02*
X57355000Y-118695000D01*
X57355000Y-118695000D02*
X55895000Y-118695000D01*
X55895000Y-121655000D02*
X57355000Y-121655000D01*
X133175000Y-112100000D02*
X133175000Y-108700000D01*
X137275000Y-112100000D02*
X133175000Y-112100000D01*
X137275000Y-108700000D02*
X137275000Y-112100000D01*
X133175000Y-108700000D02*
X137275000Y-108700000D01*
X96005000Y-103255000D02*
X96945000Y-103255000D01*
X96945000Y-103255000D02*
X96945000Y-101395000D01*
X96945000Y-101395000D02*
X96005000Y-101395000D01*
X96005000Y-101395000D02*
X96005000Y-103255000D01*
X53285000Y-135910000D02*
X53285000Y-134090000D01*
X52365000Y-135910000D02*
X53285000Y-135910000D01*
X53285000Y-134090000D02*
X52365000Y-134090000D01*
X52365000Y-134090000D02*
X52365000Y-135910000D01*
X86255000Y-88070000D02*
X86255000Y-89930000D01*
X87195000Y-89930000D02*
X87195000Y-88070000D01*
X87195000Y-88070000D02*
X86255000Y-88070000D01*
X86255000Y-89930000D02*
X87195000Y-89930000D01*
X48705000Y-52630000D02*
X49645000Y-52630000D01*
X49645000Y-50770000D02*
X48705000Y-50770000D01*
X48705000Y-50770000D02*
X48705000Y-52630000D01*
X49645000Y-52630000D02*
X49645000Y-50770000D01*
X54710000Y-138510000D02*
X54710000Y-137590000D01*
X54710000Y-137590000D02*
X52890000Y-137590000D01*
X52890000Y-137590000D02*
X52890000Y-138510000D01*
X52890000Y-138510000D02*
X54710000Y-138510000D01*
X58335000Y-85435000D02*
X58335000Y-83615000D01*
X57415000Y-85435000D02*
X58335000Y-85435000D01*
X57415000Y-83615000D02*
X57415000Y-85435000D01*
X58335000Y-83615000D02*
X57415000Y-83615000D01*
X102835000Y-102835000D02*
X102835000Y-101915000D01*
X101015000Y-102835000D02*
X102835000Y-102835000D01*
X101015000Y-101915000D02*
X101015000Y-102835000D01*
X102835000Y-101915000D02*
X101015000Y-101915000D01*
X98893198Y-100918736D02*
X99543736Y-100268198D01*
X98256802Y-98981264D02*
X97606264Y-99631802D01*
X97606264Y-99631802D02*
X98893198Y-100918736D01*
X99543736Y-100268198D02*
X98256802Y-98981264D01*
X115330000Y-50745000D02*
X115330000Y-49805000D01*
X115330000Y-49805000D02*
X113470000Y-49805000D01*
X113470000Y-50745000D02*
X115330000Y-50745000D01*
X113470000Y-49805000D02*
X113470000Y-50745000D01*
X77925000Y-98225000D02*
X81125000Y-98225000D01*
X81125000Y-98225000D02*
X81125000Y-93625000D01*
X81125000Y-93625000D02*
X77925000Y-93625000D01*
X77925000Y-93625000D02*
X77925000Y-98225000D01*
X66920000Y-49805000D02*
X66920000Y-50745000D01*
X68780000Y-49805000D02*
X66920000Y-49805000D01*
X68780000Y-50745000D02*
X68780000Y-49805000D01*
X66920000Y-50745000D02*
X68780000Y-50745000D01*
X87470000Y-92020000D02*
X86530000Y-92020000D01*
X86530000Y-93880000D02*
X87470000Y-93880000D01*
X87470000Y-93880000D02*
X87470000Y-92020000D01*
X86530000Y-92020000D02*
X86530000Y-93880000D01*
X93718736Y-97368198D02*
X92431802Y-96081264D01*
X91781264Y-96731802D02*
X93068198Y-98018736D01*
X92431802Y-96081264D02*
X91781264Y-96731802D01*
X93068198Y-98018736D02*
X93718736Y-97368198D01*
X84615000Y-48365000D02*
X84615000Y-49285000D01*
X86435000Y-48365000D02*
X84615000Y-48365000D01*
X84615000Y-49285000D02*
X86435000Y-49285000D01*
X86435000Y-49285000D02*
X86435000Y-48365000D01*
D10*
X113200000Y-53700000D02*
X120800000Y-53700000D01*
X120800000Y-53700000D02*
X120800000Y-90400000D01*
X120800000Y-90400000D02*
X113200000Y-90400000D01*
X113200000Y-90400000D02*
X113200000Y-53700000D01*
D11*
X77570000Y-48855000D02*
X77570000Y-49795000D01*
X79430000Y-48855000D02*
X77570000Y-48855000D01*
X79430000Y-49795000D02*
X79430000Y-48855000D01*
X77570000Y-49795000D02*
X79430000Y-49795000D01*
X74405000Y-52630000D02*
X75345000Y-52630000D01*
X75345000Y-52630000D02*
X75345000Y-50770000D01*
X74405000Y-50770000D02*
X74405000Y-52630000D01*
X75345000Y-50770000D02*
X74405000Y-50770000D01*
X104195000Y-50770000D02*
X103255000Y-50770000D01*
X103255000Y-50770000D02*
X103255000Y-52630000D01*
X104195000Y-52630000D02*
X104195000Y-50770000D01*
X103255000Y-52630000D02*
X104195000Y-52630000D01*
X84130000Y-46305000D02*
X82270000Y-46305000D01*
X84130000Y-47245000D02*
X84130000Y-46305000D01*
X82270000Y-46305000D02*
X82270000Y-47245000D01*
X82270000Y-47245000D02*
X84130000Y-47245000D01*
X73455000Y-52630000D02*
X74395000Y-52630000D01*
X74395000Y-52630000D02*
X74395000Y-50770000D01*
X74395000Y-50770000D02*
X73455000Y-50770000D01*
X73455000Y-50770000D02*
X73455000Y-52630000D01*
X100155000Y-93845000D02*
X100155000Y-92905000D01*
X98295000Y-93845000D02*
X100155000Y-93845000D01*
X100155000Y-92905000D02*
X98295000Y-92905000D01*
X98295000Y-92905000D02*
X98295000Y-93845000D01*
X84110000Y-45290000D02*
X82290000Y-45290000D01*
X82290000Y-46210000D02*
X84110000Y-46210000D01*
X84110000Y-46210000D02*
X84110000Y-45290000D01*
X82290000Y-45290000D02*
X82290000Y-46210000D01*
X96315000Y-91940000D02*
X96315000Y-92860000D01*
X98135000Y-92860000D02*
X98135000Y-91940000D01*
X96315000Y-92860000D02*
X98135000Y-92860000D01*
X98135000Y-91940000D02*
X96315000Y-91940000D01*
X100793736Y-95631802D02*
X100143198Y-94981264D01*
X98856264Y-96268198D02*
X99506802Y-96918736D01*
X99506802Y-96918736D02*
X100793736Y-95631802D01*
X100143198Y-94981264D02*
X98856264Y-96268198D01*
X53835000Y-82710000D02*
X53835000Y-80890000D01*
X52915000Y-82710000D02*
X53835000Y-82710000D01*
X52915000Y-80890000D02*
X52915000Y-82710000D01*
X53835000Y-80890000D02*
X52915000Y-80890000D01*
X118200000Y-46230000D02*
X120020000Y-46230000D01*
X118200000Y-45310000D02*
X118200000Y-46230000D01*
X120020000Y-45310000D02*
X118200000Y-45310000D01*
X120020000Y-46230000D02*
X120020000Y-45310000D01*
X48695000Y-52630000D02*
X48695000Y-50770000D01*
X47755000Y-50770000D02*
X47755000Y-52630000D01*
X47755000Y-52630000D02*
X48695000Y-52630000D01*
X48695000Y-50770000D02*
X47755000Y-50770000D01*
X89431802Y-104156264D02*
X88781264Y-104806802D01*
X90718736Y-105443198D02*
X89431802Y-104156264D01*
X90068198Y-106093736D02*
X90718736Y-105443198D01*
X88781264Y-104806802D02*
X90068198Y-106093736D01*
X88545000Y-88675000D02*
X90505000Y-88675000D01*
X88545000Y-85275000D02*
X88545000Y-88675000D01*
X90505000Y-88675000D02*
X90505000Y-85275000D01*
X90505000Y-85275000D02*
X88545000Y-85275000D01*
X118920000Y-50770000D02*
X117980000Y-50770000D01*
X118920000Y-52630000D02*
X118920000Y-50770000D01*
X117980000Y-50770000D02*
X117980000Y-52630000D01*
X117980000Y-52630000D02*
X118920000Y-52630000D01*
D10*
X84800000Y-140400000D02*
X77200000Y-140400000D01*
X77200000Y-103700000D02*
X84800000Y-103700000D01*
X77200000Y-140400000D02*
X77200000Y-103700000D01*
X84800000Y-103700000D02*
X84800000Y-140400000D01*
D11*
X71945000Y-46305000D02*
X71945000Y-47245000D01*
X71945000Y-47245000D02*
X73805000Y-47245000D01*
X73805000Y-47245000D02*
X73805000Y-46305000D01*
X73805000Y-46305000D02*
X71945000Y-46305000D01*
X93581264Y-95631802D02*
X94868198Y-96918736D01*
X94231802Y-94981264D02*
X93581264Y-95631802D01*
X94868198Y-96918736D02*
X95518736Y-96268198D01*
X95518736Y-96268198D02*
X94231802Y-94981264D01*
X98490000Y-92335000D02*
X100310000Y-92335000D01*
X98490000Y-91415000D02*
X98490000Y-92335000D01*
X100310000Y-92335000D02*
X100310000Y-91415000D01*
X100310000Y-91415000D02*
X98490000Y-91415000D01*
X132330000Y-43570000D02*
X132330000Y-45430000D01*
X133270000Y-43570000D02*
X132330000Y-43570000D01*
X132330000Y-45430000D02*
X133270000Y-45430000D01*
X133270000Y-45430000D02*
X133270000Y-43570000D01*
X121850000Y-100395000D02*
X121850000Y-83755000D01*
X133150000Y-83755000D02*
X133150000Y-100395000D01*
X121850000Y-83755000D02*
X133150000Y-83755000D01*
X133150000Y-100395000D02*
X121850000Y-100395000D01*
X84615000Y-50210000D02*
X86435000Y-50210000D01*
X84615000Y-49290000D02*
X84615000Y-50210000D01*
X86435000Y-50210000D02*
X86435000Y-49290000D01*
X86435000Y-49290000D02*
X84615000Y-49290000D01*
X86470000Y-92830000D02*
X86470000Y-90970000D01*
X85530000Y-90970000D02*
X85530000Y-92830000D01*
X85530000Y-92830000D02*
X86470000Y-92830000D01*
X86470000Y-90970000D02*
X85530000Y-90970000D01*
X133155000Y-111180000D02*
X131295000Y-111180000D01*
X131295000Y-112120000D02*
X133155000Y-112120000D01*
X131295000Y-111180000D02*
X131295000Y-112120000D01*
X133155000Y-112120000D02*
X133155000Y-111180000D01*
X71695000Y-52630000D02*
X71695000Y-50770000D01*
X71695000Y-50770000D02*
X70755000Y-50770000D01*
X70755000Y-50770000D02*
X70755000Y-52630000D01*
X70755000Y-52630000D02*
X71695000Y-52630000D01*
X73785000Y-45365000D02*
X71965000Y-45365000D01*
X71965000Y-46285000D02*
X73785000Y-46285000D01*
X71965000Y-45365000D02*
X71965000Y-46285000D01*
X73785000Y-46285000D02*
X73785000Y-45365000D01*
X55860000Y-118715000D02*
X54940000Y-118715000D01*
X55860000Y-120535000D02*
X55860000Y-118715000D01*
X54940000Y-120535000D02*
X55860000Y-120535000D01*
X54940000Y-118715000D02*
X54940000Y-120535000D01*
D10*
X120800000Y-140400000D02*
X113200000Y-140400000D01*
X120800000Y-103700000D02*
X120800000Y-140400000D01*
X113200000Y-140400000D02*
X113200000Y-103700000D01*
X113200000Y-103700000D02*
X120800000Y-103700000D01*
D11*
X55445000Y-75180000D02*
X55445000Y-76120000D01*
X57305000Y-75180000D02*
X55445000Y-75180000D01*
X55445000Y-76120000D02*
X57305000Y-76120000D01*
X57305000Y-76120000D02*
X57305000Y-75180000D01*
X83450000Y-94275000D02*
X81150000Y-94275000D01*
X81150000Y-94275000D02*
X81150000Y-98875000D01*
X81150000Y-98875000D02*
X83450000Y-98875000D01*
X83450000Y-98875000D02*
X83450000Y-94275000D01*
X95618736Y-99368198D02*
X94331802Y-98081264D01*
X94968198Y-100018736D02*
X95618736Y-99368198D01*
X94331802Y-98081264D02*
X93681264Y-98731802D01*
X93681264Y-98731802D02*
X94968198Y-100018736D01*
X60135000Y-85435000D02*
X60135000Y-83615000D01*
X60135000Y-83615000D02*
X59215000Y-83615000D01*
X59215000Y-85435000D02*
X60135000Y-85435000D01*
X59215000Y-83615000D02*
X59215000Y-85435000D01*
X98506264Y-106756802D02*
X99793198Y-108043736D01*
X99156802Y-106106264D02*
X98506264Y-106756802D01*
X100443736Y-107393198D02*
X99156802Y-106106264D01*
X99793198Y-108043736D02*
X100443736Y-107393198D01*
X95200269Y-103264949D02*
X95864949Y-102600269D01*
X95864949Y-102600269D02*
X94549731Y-101285051D01*
X94549731Y-101285051D02*
X93885051Y-101949731D01*
X93885051Y-101949731D02*
X95200269Y-103264949D01*
X45020000Y-52630000D02*
X45020000Y-50770000D01*
X44080000Y-52630000D02*
X45020000Y-52630000D01*
X45020000Y-50770000D02*
X44080000Y-50770000D01*
X44080000Y-50770000D02*
X44080000Y-52630000D01*
X89080000Y-89320000D02*
X89080000Y-91180000D01*
X90020000Y-91180000D02*
X90020000Y-89320000D01*
X89080000Y-91180000D02*
X90020000Y-91180000D01*
X90020000Y-89320000D02*
X89080000Y-89320000D01*
X107730000Y-50770000D02*
X107730000Y-52630000D01*
X107730000Y-52630000D02*
X108670000Y-52630000D01*
X108670000Y-50770000D02*
X107730000Y-50770000D01*
X108670000Y-52630000D02*
X108670000Y-50770000D01*
X95231802Y-105268736D02*
X96518736Y-103981802D01*
X96518736Y-103981802D02*
X95868198Y-103331264D01*
X95868198Y-103331264D02*
X94581264Y-104618198D01*
X94581264Y-104618198D02*
X95231802Y-105268736D01*
X92210051Y-104950269D02*
X92874731Y-105614949D01*
X92874731Y-105614949D02*
X94189949Y-104299731D01*
X94189949Y-104299731D02*
X93525269Y-103635051D01*
X93525269Y-103635051D02*
X92210051Y-104950269D01*
X115330000Y-49795000D02*
X115330000Y-48855000D01*
X113470000Y-49795000D02*
X115330000Y-49795000D01*
X115330000Y-48855000D02*
X113470000Y-48855000D01*
X113470000Y-48855000D02*
X113470000Y-49795000D01*
X101540000Y-91715000D02*
X101540000Y-93535000D01*
X102460000Y-91715000D02*
X101540000Y-91715000D01*
X101540000Y-93535000D02*
X102460000Y-93535000D01*
X102460000Y-93535000D02*
X102460000Y-91715000D01*
X106780000Y-50770000D02*
X106780000Y-52630000D01*
X106780000Y-52630000D02*
X107720000Y-52630000D01*
X107720000Y-52630000D02*
X107720000Y-50770000D01*
X107720000Y-50770000D02*
X106780000Y-50770000D01*
X77570000Y-49805000D02*
X77570000Y-50745000D01*
X79430000Y-50745000D02*
X79430000Y-49805000D01*
X77570000Y-50745000D02*
X79430000Y-50745000D01*
X79430000Y-49805000D02*
X77570000Y-49805000D01*
X133155000Y-108980000D02*
X131295000Y-108980000D01*
X131295000Y-108980000D02*
X131295000Y-109920000D01*
X131295000Y-109920000D02*
X133155000Y-109920000D01*
X133155000Y-109920000D02*
X133155000Y-108980000D01*
X96510000Y-89260000D02*
X96510000Y-87440000D01*
X95590000Y-89260000D02*
X96510000Y-89260000D01*
X96510000Y-87440000D02*
X95590000Y-87440000D01*
X95590000Y-87440000D02*
X95590000Y-89260000D01*
X85631264Y-97681802D02*
X86918198Y-98968736D01*
X86918198Y-98968736D02*
X87568736Y-98318198D01*
X86281802Y-97031264D02*
X85631264Y-97681802D01*
X87568736Y-98318198D02*
X86281802Y-97031264D01*
X116995000Y-52630000D02*
X116995000Y-50770000D01*
X116055000Y-50770000D02*
X116055000Y-52630000D01*
X116995000Y-50770000D02*
X116055000Y-50770000D01*
X116055000Y-52630000D02*
X116995000Y-52630000D01*
X44070000Y-50770000D02*
X43130000Y-50770000D01*
X44070000Y-52630000D02*
X44070000Y-50770000D01*
X43130000Y-50770000D02*
X43130000Y-52630000D01*
X43130000Y-52630000D02*
X44070000Y-52630000D01*
X41520000Y-52630000D02*
X41520000Y-50770000D01*
X40580000Y-50770000D02*
X40580000Y-52630000D01*
X41520000Y-50770000D02*
X40580000Y-50770000D01*
X40580000Y-52630000D02*
X41520000Y-52630000D01*
X87615000Y-98690000D02*
X87615000Y-99610000D01*
X89435000Y-99610000D02*
X89435000Y-98690000D01*
X89435000Y-98690000D02*
X87615000Y-98690000D01*
X87615000Y-99610000D02*
X89435000Y-99610000D01*
X97230000Y-100995000D02*
X97230000Y-102855000D01*
X98170000Y-100995000D02*
X97230000Y-100995000D01*
X98170000Y-102855000D02*
X98170000Y-100995000D01*
X97230000Y-102855000D02*
X98170000Y-102855000D01*
X95110000Y-91915000D02*
X93290000Y-91915000D01*
X95110000Y-92835000D02*
X95110000Y-91915000D01*
X93290000Y-92835000D02*
X95110000Y-92835000D01*
X93290000Y-91915000D02*
X93290000Y-92835000D01*
X68855000Y-50770000D02*
X68855000Y-52630000D01*
X69795000Y-52630000D02*
X69795000Y-50770000D01*
X68855000Y-52630000D02*
X69795000Y-52630000D01*
X69795000Y-50770000D02*
X68855000Y-50770000D01*
X92810051Y-101400269D02*
X93474731Y-102064949D01*
X93474731Y-102064949D02*
X94789949Y-100749731D01*
X94789949Y-100749731D02*
X94125269Y-100085051D01*
X94125269Y-100085051D02*
X92810051Y-101400269D01*
X59785000Y-120535000D02*
X59785000Y-118715000D01*
X59785000Y-118715000D02*
X58865000Y-118715000D01*
X58865000Y-118715000D02*
X58865000Y-120535000D01*
X58865000Y-120535000D02*
X59785000Y-120535000D01*
X105130000Y-50745000D02*
X105130000Y-49805000D01*
X103270000Y-49805000D02*
X103270000Y-50745000D01*
X103270000Y-50745000D02*
X105130000Y-50745000D01*
X105130000Y-49805000D02*
X103270000Y-49805000D01*
X77545000Y-52630000D02*
X77545000Y-50770000D01*
X77545000Y-50770000D02*
X76605000Y-50770000D01*
X76605000Y-52630000D02*
X77545000Y-52630000D01*
X76605000Y-50770000D02*
X76605000Y-52630000D01*
X83168198Y-90881264D02*
X81881264Y-92168198D01*
X82531802Y-92818736D02*
X83818736Y-91531802D01*
X83818736Y-91531802D02*
X83168198Y-90881264D01*
X81881264Y-92168198D02*
X82531802Y-92818736D01*
X99125000Y-86080000D02*
X99125000Y-84120000D01*
X95725000Y-84120000D02*
X95725000Y-86080000D01*
X99125000Y-84120000D02*
X95725000Y-84120000D01*
X95725000Y-86080000D02*
X99125000Y-86080000D01*
X92995000Y-91580000D02*
X92995000Y-89720000D01*
X92055000Y-91580000D02*
X92995000Y-91580000D01*
X92055000Y-89720000D02*
X92055000Y-91580000D01*
X92995000Y-89720000D02*
X92055000Y-89720000D01*
X57320000Y-76120000D02*
X59180000Y-76120000D01*
X59180000Y-76120000D02*
X59180000Y-75180000D01*
X59180000Y-75180000D02*
X57320000Y-75180000D01*
X57320000Y-75180000D02*
X57320000Y-76120000D01*
X82270000Y-49495000D02*
X84130000Y-49495000D01*
X84130000Y-49495000D02*
X84130000Y-48555000D01*
X82270000Y-48555000D02*
X82270000Y-49495000D01*
X84130000Y-48555000D02*
X82270000Y-48555000D01*
X95550000Y-86100000D02*
X93250000Y-86100000D01*
X93250000Y-90700000D02*
X95550000Y-90700000D01*
X93250000Y-86100000D02*
X93250000Y-90700000D01*
X95550000Y-90700000D02*
X95550000Y-86100000D01*
X105555000Y-94925000D02*
X105555000Y-91525000D01*
X103595000Y-94925000D02*
X105555000Y-94925000D01*
X105555000Y-91525000D02*
X103595000Y-91525000D01*
X103595000Y-91525000D02*
X103595000Y-94925000D01*
X54760000Y-140375000D02*
X54760000Y-133175000D01*
X54760000Y-140375000D02*
X63740000Y-140375000D01*
X63740000Y-133175000D02*
X54760000Y-133175000D01*
X63740000Y-133175000D02*
X63740000Y-140375000D01*
X45030000Y-52630000D02*
X45970000Y-52630000D01*
X45970000Y-52630000D02*
X45970000Y-50770000D01*
X45030000Y-50770000D02*
X45030000Y-52630000D01*
X45970000Y-50770000D02*
X45030000Y-50770000D01*
X87693736Y-106393198D02*
X86406802Y-105106264D01*
X86406802Y-105106264D02*
X85756264Y-105756802D01*
X87043198Y-107043736D02*
X87693736Y-106393198D01*
X85756264Y-105756802D02*
X87043198Y-107043736D01*
X91531802Y-101968736D02*
X92818736Y-100681802D01*
X90881264Y-101318198D02*
X91531802Y-101968736D01*
X92818736Y-100681802D02*
X92168198Y-100031264D01*
X92168198Y-100031264D02*
X90881264Y-101318198D01*
D10*
X66950000Y-90300000D02*
X66950000Y-53600000D01*
X74550000Y-53600000D02*
X74550000Y-90300000D01*
X66950000Y-53600000D02*
X74550000Y-53600000D01*
X74550000Y-90300000D02*
X66950000Y-90300000D01*
D11*
X105830000Y-52630000D02*
X106770000Y-52630000D01*
X106770000Y-52630000D02*
X106770000Y-50770000D01*
X105830000Y-50770000D02*
X105830000Y-52630000D01*
X106770000Y-50770000D02*
X105830000Y-50770000D01*
X110230000Y-50770000D02*
X110230000Y-52630000D01*
X110230000Y-52630000D02*
X111170000Y-52630000D01*
X111170000Y-50770000D02*
X110230000Y-50770000D01*
X111170000Y-52630000D02*
X111170000Y-50770000D01*
X84630000Y-52630000D02*
X85570000Y-52630000D01*
X84630000Y-50770000D02*
X84630000Y-52630000D01*
X85570000Y-52630000D02*
X85570000Y-50770000D01*
X85570000Y-50770000D02*
X84630000Y-50770000D01*
X81481802Y-101456264D02*
X80831264Y-102106802D01*
X80831264Y-102106802D02*
X82118198Y-103393736D01*
X82768736Y-102743198D02*
X81481802Y-101456264D01*
X82118198Y-103393736D02*
X82768736Y-102743198D01*
X97565000Y-89265000D02*
X97565000Y-91085000D01*
X98485000Y-91085000D02*
X98485000Y-89265000D01*
X98485000Y-89265000D02*
X97565000Y-89265000D01*
X97565000Y-91085000D02*
X98485000Y-91085000D01*
X86590000Y-107290000D02*
X86590000Y-108210000D01*
X86590000Y-108210000D02*
X88410000Y-108210000D01*
X88410000Y-107290000D02*
X86590000Y-107290000D01*
X88410000Y-108210000D02*
X88410000Y-107290000D01*
D10*
X74550000Y-103600000D02*
X74550000Y-140300000D01*
X66950000Y-103600000D02*
X74550000Y-103600000D01*
X74550000Y-140300000D02*
X66950000Y-140300000D01*
X66950000Y-140300000D02*
X66950000Y-103600000D01*
D11*
X133270000Y-41670000D02*
X132330000Y-41670000D01*
X132330000Y-41670000D02*
X132330000Y-43530000D01*
X133270000Y-43530000D02*
X133270000Y-41670000D01*
X132330000Y-43530000D02*
X133270000Y-43530000D01*
X42470000Y-50770000D02*
X41530000Y-50770000D01*
X42470000Y-52630000D02*
X42470000Y-50770000D01*
X41530000Y-52630000D02*
X42470000Y-52630000D01*
X41530000Y-50770000D02*
X41530000Y-52630000D01*
X69805000Y-52630000D02*
X70745000Y-52630000D01*
X69805000Y-50770000D02*
X69805000Y-52630000D01*
X70745000Y-52630000D02*
X70745000Y-50770000D01*
X70745000Y-50770000D02*
X69805000Y-50770000D01*
D10*
X77200000Y-53700000D02*
X84800000Y-53700000D01*
X84800000Y-53700000D02*
X84800000Y-90400000D01*
X77200000Y-90400000D02*
X77200000Y-53700000D01*
X84800000Y-90400000D02*
X77200000Y-90400000D01*
D11*
X60719999Y-121290000D02*
X58899999Y-121290000D01*
X58899999Y-121290000D02*
X58899999Y-122210000D01*
X58899999Y-122210000D02*
X60719999Y-122210000D01*
X60719999Y-122210000D02*
X60719999Y-121290000D01*
X96793736Y-94543198D02*
X95506802Y-93256264D01*
X95506802Y-93256264D02*
X94856264Y-93906802D01*
X96143198Y-95193736D02*
X96793736Y-94543198D01*
X94856264Y-93906802D02*
X96143198Y-95193736D01*
X118195000Y-46255000D02*
X118195000Y-47195000D01*
X118195000Y-47195000D02*
X120055000Y-47195000D01*
X120055000Y-46255000D02*
X118195000Y-46255000D01*
X120055000Y-47195000D02*
X120055000Y-46255000D01*
X137245000Y-105620000D02*
X136305000Y-105620000D01*
X137245000Y-107480000D02*
X137245000Y-105620000D01*
X136305000Y-107480000D02*
X137245000Y-107480000D01*
X136305000Y-105620000D02*
X136305000Y-107480000D01*
X89295000Y-106955000D02*
X89295000Y-107895000D01*
X91155000Y-107895000D02*
X91155000Y-106955000D01*
X91155000Y-106955000D02*
X89295000Y-106955000D01*
X89295000Y-107895000D02*
X91155000Y-107895000D01*
X88510000Y-103015000D02*
X86690000Y-103015000D01*
X86690000Y-103015000D02*
X86690000Y-103935000D01*
X88510000Y-103935000D02*
X88510000Y-103015000D01*
X86690000Y-103935000D02*
X88510000Y-103935000D01*
X104880000Y-50770000D02*
X104880000Y-52630000D01*
X105820000Y-52630000D02*
X105820000Y-50770000D01*
X104880000Y-52630000D02*
X105820000Y-52630000D01*
X105820000Y-50770000D02*
X104880000Y-50770000D01*
X77555000Y-50770000D02*
X77555000Y-52630000D01*
X77555000Y-52630000D02*
X78495000Y-52630000D01*
X78495000Y-50770000D02*
X77555000Y-50770000D01*
X78495000Y-52630000D02*
X78495000Y-50770000D01*
X54270000Y-134070000D02*
X53330000Y-134070000D01*
X53330000Y-134070000D02*
X53330000Y-135930000D01*
X53330000Y-135930000D02*
X54270000Y-135930000D01*
X54270000Y-135930000D02*
X54270000Y-134070000D01*
X89385000Y-94610000D02*
X89385000Y-93690000D01*
X89385000Y-93690000D02*
X87565000Y-93690000D01*
X87565000Y-94610000D02*
X89385000Y-94610000D01*
X87565000Y-93690000D02*
X87565000Y-94610000D01*
X43405000Y-49805000D02*
X41545000Y-49805000D01*
X41545000Y-49805000D02*
X41545000Y-50745000D01*
X41545000Y-50745000D02*
X43405000Y-50745000D01*
X43405000Y-50745000D02*
X43405000Y-49805000D01*
X110220000Y-52630000D02*
X110220000Y-50770000D01*
X109280000Y-50770000D02*
X109280000Y-52630000D01*
X110220000Y-50770000D02*
X109280000Y-50770000D01*
X109280000Y-52630000D02*
X110220000Y-52630000D01*
X58830000Y-121655000D02*
X58830000Y-118695000D01*
X57370000Y-121655000D02*
X58830000Y-121655000D01*
X58830000Y-118695000D02*
X57370000Y-118695000D01*
X57370000Y-118695000D02*
X57370000Y-121655000D01*
X88060000Y-85835000D02*
X88060000Y-84015000D01*
X87140000Y-85835000D02*
X88060000Y-85835000D01*
X87140000Y-84015000D02*
X87140000Y-85835000D01*
X88060000Y-84015000D02*
X87140000Y-84015000D01*
X82895000Y-52630000D02*
X82895000Y-50770000D01*
X81955000Y-52630000D02*
X82895000Y-52630000D01*
X81955000Y-50770000D02*
X81955000Y-52630000D01*
X82895000Y-50770000D02*
X81955000Y-50770000D01*
X82270000Y-50445000D02*
X84130000Y-50445000D01*
X82270000Y-49505000D02*
X82270000Y-50445000D01*
X84130000Y-49505000D02*
X82270000Y-49505000D01*
X84130000Y-50445000D02*
X84130000Y-49505000D01*
D10*
X60890000Y-76460000D02*
X60890000Y-83540000D01*
X54110000Y-76460000D02*
X60890000Y-76460000D01*
X54110000Y-83540000D02*
X54110000Y-76460000D01*
X60890000Y-83540000D02*
X54110000Y-83540000D01*
D11*
X107960000Y-47220000D02*
X109820000Y-47220000D01*
X109820000Y-46280000D02*
X107960000Y-46280000D01*
X107960000Y-46280000D02*
X107960000Y-47220000D01*
X109820000Y-47220000D02*
X109820000Y-46280000D01*
X66895000Y-52630000D02*
X66895000Y-50770000D01*
X66895000Y-50770000D02*
X65955000Y-50770000D01*
X65955000Y-52630000D02*
X66895000Y-52630000D01*
X65955000Y-50770000D02*
X65955000Y-52630000D01*
X102305000Y-50770000D02*
X102305000Y-52630000D01*
X103245000Y-50770000D02*
X102305000Y-50770000D01*
X103245000Y-52630000D02*
X103245000Y-50770000D01*
X102305000Y-52630000D02*
X103245000Y-52630000D01*
X96506802Y-97968736D02*
X97793736Y-96681802D01*
X95856264Y-97318198D02*
X96506802Y-97968736D01*
X97793736Y-96681802D02*
X97143198Y-96031264D01*
X97143198Y-96031264D02*
X95856264Y-97318198D01*
X105130000Y-49795000D02*
X105130000Y-48855000D01*
X105130000Y-48855000D02*
X103270000Y-48855000D01*
X103270000Y-48855000D02*
X103270000Y-49795000D01*
X103270000Y-49795000D02*
X105130000Y-49795000D01*
X80055000Y-50770000D02*
X80055000Y-52630000D01*
X80995000Y-50770000D02*
X80055000Y-50770000D01*
X80055000Y-52630000D02*
X80995000Y-52630000D01*
X80995000Y-52630000D02*
X80995000Y-50770000D01*
X67845000Y-52630000D02*
X67845000Y-50770000D01*
X66905000Y-50770000D02*
X66905000Y-52630000D01*
X67845000Y-50770000D02*
X66905000Y-50770000D01*
X66905000Y-52630000D02*
X67845000Y-52630000D01*
X68780000Y-49795000D02*
X68780000Y-48855000D01*
X66920000Y-48855000D02*
X66920000Y-49795000D01*
X66920000Y-49795000D02*
X68780000Y-49795000D01*
X68780000Y-48855000D02*
X66920000Y-48855000D01*
X114395000Y-50770000D02*
X113455000Y-50770000D01*
X113455000Y-50770000D02*
X113455000Y-52630000D01*
X114395000Y-52630000D02*
X114395000Y-50770000D01*
X113455000Y-52630000D02*
X114395000Y-52630000D01*
X100714949Y-102799731D02*
X100050269Y-102135051D01*
X98735051Y-103450269D02*
X99399731Y-104114949D01*
X99399731Y-104114949D02*
X100714949Y-102799731D01*
X100050269Y-102135051D02*
X98735051Y-103450269D01*
X96215000Y-82010000D02*
X98035000Y-82010000D01*
X98035000Y-82010000D02*
X98035000Y-81090000D01*
X96215000Y-81090000D02*
X96215000Y-82010000D01*
X98035000Y-81090000D02*
X96215000Y-81090000D01*
X103910000Y-100785000D02*
X103910000Y-99865000D01*
X102090000Y-99865000D02*
X102090000Y-100785000D01*
X102090000Y-100785000D02*
X103910000Y-100785000D01*
X103910000Y-99865000D02*
X102090000Y-99865000D01*
X112505000Y-50770000D02*
X112505000Y-52630000D01*
X113445000Y-50770000D02*
X112505000Y-50770000D01*
X113445000Y-52630000D02*
X113445000Y-50770000D01*
X112505000Y-52630000D02*
X113445000Y-52630000D01*
X133155000Y-109955000D02*
X131295000Y-109955000D01*
X131295000Y-110895000D02*
X133155000Y-110895000D01*
X131295000Y-109955000D02*
X131295000Y-110895000D01*
X133155000Y-110895000D02*
X133155000Y-109955000D01*
X46920000Y-50770000D02*
X45980000Y-50770000D01*
X45980000Y-52630000D02*
X46920000Y-52630000D01*
X45980000Y-50770000D02*
X45980000Y-52630000D01*
X46920000Y-52630000D02*
X46920000Y-50770000D01*
X137235000Y-108435000D02*
X137235000Y-107515000D01*
X135415000Y-108435000D02*
X137235000Y-108435000D01*
X137235000Y-107515000D02*
X135415000Y-107515000D01*
X135415000Y-107515000D02*
X135415000Y-108435000D01*
X72645000Y-50770000D02*
X71705000Y-50770000D01*
X71705000Y-52630000D02*
X72645000Y-52630000D01*
X71705000Y-50770000D02*
X71705000Y-52630000D01*
X72645000Y-52630000D02*
X72645000Y-50770000D01*
X109810000Y-46260000D02*
X109810000Y-45340000D01*
X107990000Y-46260000D02*
X109810000Y-46260000D01*
X109810000Y-45340000D02*
X107990000Y-45340000D01*
X107990000Y-45340000D02*
X107990000Y-46260000D01*
X84620000Y-52630000D02*
X84620000Y-50770000D01*
X84620000Y-50770000D02*
X83680000Y-50770000D01*
X83680000Y-50770000D02*
X83680000Y-52630000D01*
X83680000Y-52630000D02*
X84620000Y-52630000D01*
X91449731Y-91160051D02*
X90785051Y-91824731D01*
X92764949Y-92475269D02*
X91449731Y-91160051D01*
X90785051Y-91824731D02*
X92100269Y-93139949D01*
X92100269Y-93139949D02*
X92764949Y-92475269D01*
X80045000Y-52630000D02*
X80045000Y-50770000D01*
X79105000Y-52630000D02*
X80045000Y-52630000D01*
X80045000Y-50770000D02*
X79105000Y-50770000D01*
X79105000Y-50770000D02*
X79105000Y-52630000D01*
X115105000Y-52630000D02*
X116045000Y-52630000D01*
X116045000Y-50770000D02*
X115105000Y-50770000D01*
X115105000Y-50770000D02*
X115105000Y-52630000D01*
X116045000Y-52630000D02*
X116045000Y-50770000D01*
X91435000Y-100485000D02*
X91435000Y-98665000D01*
X90515000Y-100485000D02*
X91435000Y-100485000D01*
X91435000Y-98665000D02*
X90515000Y-98665000D01*
X90515000Y-98665000D02*
X90515000Y-100485000D01*
X89706264Y-92756802D02*
X90993198Y-94043736D01*
X90356802Y-92106264D02*
X89706264Y-92756802D01*
X90993198Y-94043736D02*
X91643736Y-93393198D01*
X91643736Y-93393198D02*
X90356802Y-92106264D01*
D10*
X110550000Y-53600000D02*
X110550000Y-90300000D01*
X102950000Y-53600000D02*
X110550000Y-53600000D01*
X102950000Y-90300000D02*
X102950000Y-53600000D01*
X110550000Y-90300000D02*
X102950000Y-90300000D01*
X110550000Y-103600000D02*
X110550000Y-140300000D01*
X102950000Y-103600000D02*
X110550000Y-103600000D01*
X110550000Y-140300000D02*
X102950000Y-140300000D01*
X102950000Y-140300000D02*
X102950000Y-103600000D01*
D11*
X95860000Y-91660000D02*
X95860000Y-90740000D01*
X94040000Y-90740000D02*
X94040000Y-91660000D01*
X95860000Y-90740000D02*
X94040000Y-90740000D01*
X94040000Y-91660000D02*
X95860000Y-91660000D01*
X89881264Y-96318198D02*
X90531802Y-96968736D01*
X91168198Y-95031264D02*
X89881264Y-96318198D01*
X90531802Y-96968736D02*
X91818736Y-95681802D01*
X91818736Y-95681802D02*
X91168198Y-95031264D01*
X119530000Y-52630000D02*
X120470000Y-52630000D01*
X119530000Y-50770000D02*
X119530000Y-52630000D01*
X120470000Y-52630000D02*
X120470000Y-50770000D01*
X120470000Y-50770000D02*
X119530000Y-50770000D01*
X43405000Y-49795000D02*
X43405000Y-48855000D01*
X41545000Y-48855000D02*
X41545000Y-49795000D01*
X41545000Y-49795000D02*
X43405000Y-49795000D01*
X43405000Y-48855000D02*
X41545000Y-48855000D01*
X59815000Y-120535000D02*
X60735000Y-120535000D01*
X60735000Y-120535000D02*
X60735000Y-118715000D01*
X60735000Y-118715000D02*
X59815000Y-118715000D01*
X59815000Y-118715000D02*
X59815000Y-120535000D01*
X81945000Y-50770000D02*
X81005000Y-50770000D01*
X81005000Y-50770000D02*
X81005000Y-52630000D01*
X81005000Y-52630000D02*
X81945000Y-52630000D01*
X81945000Y-52630000D02*
X81945000Y-50770000D01*
X117030000Y-52630000D02*
X117970000Y-52630000D01*
X117030000Y-50770000D02*
X117030000Y-52630000D01*
X117970000Y-50770000D02*
X117030000Y-50770000D01*
X117970000Y-52630000D02*
X117970000Y-50770000D01*
X97856264Y-95368198D02*
X98506802Y-96018736D01*
X99793736Y-94731802D02*
X99143198Y-94081264D01*
X99143198Y-94081264D02*
X97856264Y-95368198D01*
X98506802Y-96018736D02*
X99793736Y-94731802D01*
X101410000Y-105735000D02*
X101410000Y-104815000D01*
X99590000Y-104815000D02*
X99590000Y-105735000D01*
X101410000Y-104815000D02*
X99590000Y-104815000D01*
X99590000Y-105735000D02*
X101410000Y-105735000D01*
X113275000Y-100550000D02*
X113275000Y-102850000D01*
X117875000Y-102850000D02*
X117875000Y-100550000D01*
X113275000Y-102850000D02*
X117875000Y-102850000D01*
X117875000Y-100550000D02*
X113275000Y-100550000D01*
X88731264Y-102781802D02*
X90018198Y-104068736D01*
X90018198Y-104068736D02*
X90668736Y-103418198D01*
X89381802Y-102131264D02*
X88731264Y-102781802D01*
X90668736Y-103418198D02*
X89381802Y-102131264D01*
X97985000Y-98885000D02*
X99805000Y-98885000D01*
X97985000Y-97965000D02*
X97985000Y-98885000D01*
X99805000Y-98885000D02*
X99805000Y-97965000D01*
X99805000Y-97965000D02*
X97985000Y-97965000D01*
M02*
