G04 #@! TF.GenerationSoftware,KiCad,Pcbnew,6.0.11-3.fc36*
G04 #@! TF.CreationDate,2023-03-24T10:57:58+01:00*
G04 #@! TF.ProjectId,SAFE,53414645-2e6b-4696-9361-645f70636258,rev?*
G04 #@! TF.SameCoordinates,Original*
G04 #@! TF.FileFunction,Profile,NP*
%FSLAX46Y46*%
G04 Gerber Fmt 4.6, Leading zero omitted, Abs format (unit mm)*
G04 Created by KiCad (PCBNEW 6.0.11-3.fc36) date 2023-03-24 10:57:58*
%MOMM*%
%LPD*%
G01*
G04 APERTURE LIST*
G04 #@! TA.AperFunction,Profile*
%ADD10C,0.150000*%
G04 #@! TD*
G04 APERTURE END LIST*
D10*
X40000000Y-40000000D02*
X40000000Y-154000000D01*
X139000000Y-90000000D02*
X139000000Y-66500000D01*
X146000000Y-90000000D02*
X139000000Y-90000000D01*
X40000000Y-154000000D02*
X146000000Y-154000000D01*
X146000000Y-154000000D02*
X146000000Y-90000000D01*
X40000000Y-40000000D02*
X141000000Y-40000000D01*
X141000000Y-66500000D02*
X139000000Y-66500000D01*
X141000000Y-40000000D02*
X141000000Y-66500000D01*
X151666666Y-159000000D02*
G75*
G03*
X151666666Y-159000000I-1666666J0D01*
G01*
X147500000Y-159000000D02*
X152500000Y-159000000D01*
X150000000Y-156500000D02*
X150000000Y-161500000D01*
X36666666Y-159000000D02*
G75*
G03*
X36666666Y-159000000I-1666666J0D01*
G01*
X32500000Y-159000000D02*
X37500000Y-159000000D01*
X35000000Y-156500000D02*
X35000000Y-161500000D01*
X151666666Y-35000000D02*
G75*
G03*
X151666666Y-35000000I-1666666J0D01*
G01*
X147500000Y-35000000D02*
X152500000Y-35000000D01*
X150000000Y-32500000D02*
X150000000Y-37500000D01*
X36666666Y-35000000D02*
G75*
G03*
X36666666Y-35000000I-1666666J0D01*
G01*
X32500000Y-35000000D02*
X37500000Y-35000000D01*
X35000000Y-32500000D02*
X35000000Y-37500000D01*
M02*
